Run SEFRA model • sefra
…
##    code id_code resolution id_resolution captures
## 1   DIW       1    species             1       27
## 2   DQS       2    species             1       26
## 3   TWD      13    species             1       23
## 4   DGA      26    complex             2        0
## 5   DST      29    complex             2        0
## 6   DWC      32    complex             2        0
## 7   DIZ      34      genus             3       21
## 8   THZ      35      genus             3       10
## 9   ALZ      38     family             4        0
## 10  BLZ      40      class             5       21

## Captures data frame:

## # A tibble: 78 × 6
##    captures_k captures_live_k captures_dead_k code_k month_k fishery_group_k
##         <int>           <int>           <int>  <int>   <int>           <int>
##  1          1               1               0      1       1               1
##  2          1               1               0      1       2               1
##  3          2               1               1      1       3               1
##  4          1               1               0      1       5               1
##  5          2               1               1      1       6               1
##  6          1               1               0      1       7               1
##  7          1               1               0      1      10               1
##  8          1               0               1      1      11               1
##  9          2               1               1      1      12               1
## 10          3               2               1      1       1               2
## # ℹ 68 more rows

## Observed overlap data frame:

## # A tibble: 72 × 5
##    overlap_i species_i species_group_i month_i fishery_group_i
##        <dbl>     <int>           <int>   <int>           <int>
##  1   0.00776         1               1       1               1
##  2   0.00139         1               1       2               1
##  3   0.00568         1               1       3               1
##  4   0.00831         1               1       4               1
##  5   0.00541         1               1       5               1
##  6   0.00697         1               1       6               1
##  7   0.00956         1               1       7               1
##  8   0.00770         1               1       8               1
##  9   0.00740         1               1       9               1
## 10   0.00486         1               1      10               1
## # ℹ 62 more rows

## Commercial overlap data frame:

## # A tibble: 962 × 5
##    overlap_j species_j species_group_j month_j fishery_group_j
##        <dbl>     <int>           <int>   <int>           <int>
##  1 0.000384          1               1       1               1
##  2 0.000196          1               1       1               1
##  3 0.000258          1               1       1               1
##  4 0.0000644         1               1       1               1
##  5 0.000763          1               1       1               1
##  6 0.000477          1               1       1               1
##  7 0.000584          1               1       1               1
##  8 0.000653          1               1       1               1
##  9 0.000618          1               1       1               1
## 10 0.000430          1               1       1               1
## # ℹ 952 more rows

Captures and overlap data can also be extracted using,
respectively:

captures(sefra_dat)

## # A tibble: 78 × 6
##    captures_k captures_live_k captures_dead_k code_k month_k fishery_group_k
##         <int>           <int>           <int>  <int>   <int>           <int>
##  1          1               1               0      1       1               1
##  2          1               1               0      1       2               1
##  3          2               1               1      1       3               1
##  4          1               1               0      1       5               1
##  5          2               1               1      1       6               1
##  6          1               1               0      1       7               1
##  7          1               1               0      1      10               1
##  8          1               0               1      1      11               1
##  9          2               1               1      1      12               1
## 10          3               2               1      1       1               2
## # ℹ 68 more rows

overlap(sefra_dat)

## $observer
## # A tibble: 72 × 5
##    overlap_i species_i species_group_i month_i fishery_group_i
##        <dbl>     <int>           <int>   <int>           <int>
##  1   0.00776         1               1       1               1
##  2   0.00139         1               1       2               1
##  3   0.00568         1               1       3               1
##  4   0.00831         1               1       4               1
##  5   0.00541         1               1       5               1
##  6   0.00697         1               1       6               1
##  7   0.00956         1               1       7               1
##  8   0.00770         1               1       8               1
##  9   0.00740         1               1       9               1
## 10   0.00486         1               1      10               1
## # ℹ 62 more rows
## 
## $fishery
## # A tibble: 962 × 5
##    overlap_j species_j species_group_j month_j fishery_group_j
##        <dbl>     <int>           <int>   <int>           <int>
##  1 0.000384          1               1       1               1
##  2 0.000196          1               1       1               1
##  3 0.000258          1               1       1               1
##  4 0.0000644         1               1       1               1
##  5 0.000763          1               1       1               1
##  6 0.000477          1               1       1               1
##  7 0.000584          1               1       1               1
##  8 0.000653          1               1       1               1
##  9 0.000618          1               1       1               1
## 10 0.000430          1               1       1               1
## # ℹ 952 more rows
…
