Run SEFRA model • sefra
…
##    code id_code resolution id_resolution captures
## 1   DIW       1    species             1       26
## 2   DQS       2    species             1       23
## 3   TWD      13    species             1       21
## 4   DGA      26    complex             2        0
## 5   DST      29    complex             2        0
## 6   DWC      32    complex             2        0
## 7   DIZ      34      genus             3       19
## 8   THZ      35      genus             3        5
## 9   ALZ      38     family             4        0
## 10  BLZ      40      class             5       25

## Captures data frame:

## # A tibble: 82 × 6
##    captures_k captures_live_k captures_dead_k code_k month_k fishery_group_k
##         <int>           <int>           <int>  <int>   <int>           <int>
##  1          3               0               3      1       1               1
##  2          1               0               1      1       4               1
##  3          1               0               1      1       5               1
##  4          1               0               1      1       6               1
##  5          1               1               0      1       8               1
##  6          2               1               1      1      10               1
##  7          1               1               0      1      11               1
##  8          2               2               0      1       1               2
##  9          3               0               3      1       2               2
## 10          1               1               0      1       4               2
## # ℹ 72 more rows

## Observed overlap data frame:

## # A tibble: 72 × 5
##    overlap_i species_i species_group_i month_i fishery_group_i
##        <dbl>     <int>           <int>   <int>           <int>
##  1   0.00413         1               1       1               1
##  2   0.00596         1               1       2               1
##  3   0.00827         1               1       3               1
##  4   0.00963         1               1       4               1
##  5   0.0108          1               1       5               1
##  6   0.00691         1               1       6               1
##  7   0.00653         1               1       7               1
##  8   0.00827         1               1       8               1
##  9   0.0104          1               1       9               1
## 10   0.00748         1               1      10               1
## # ℹ 62 more rows

## Commercial overlap data frame:

## # A tibble: 995 × 5
##     overlap_j species_j species_group_j month_j fishery_group_j
##         <dbl>     <int>           <int>   <int>           <int>
##  1 0.000975           1               1       1               1
##  2 0.000378           1               1       1               1
##  3 0.000891           1               1       1               1
##  4 0.000905           1               1       1               1
##  5 0.000111           1               1       1               1
##  6 0.000792           1               1       1               1
##  7 0.000567           1               1       1               1
##  8 0.000712           1               1       1               1
##  9 0.00000396         1               1       1               1
## 10 0.000947           1               1       1               1
## # ℹ 985 more rows

Captures and overlap data can also be extracted using,
respectively:

captures(sefra_dat)

## # A tibble: 82 × 6
##    captures_k captures_live_k captures_dead_k code_k month_k fishery_group_k
##         <int>           <int>           <int>  <int>   <int>           <int>
##  1          3               0               3      1       1               1
##  2          1               0               1      1       4               1
##  3          1               0               1      1       5               1
##  4          1               0               1      1       6               1
##  5          1               1               0      1       8               1
##  6          2               1               1      1      10               1
##  7          1               1               0      1      11               1
##  8          2               2               0      1       1               2
##  9          3               0               3      1       2               2
## 10          1               1               0      1       4               2
## # ℹ 72 more rows

overlap(sefra_dat)

## $observer
## # A tibble: 72 × 5
##    overlap_i species_i species_group_i month_i fishery_group_i
##        <dbl>     <int>           <int>   <int>           <int>
##  1   0.00413         1               1       1               1
##  2   0.00596         1               1       2               1
##  3   0.00827         1               1       3               1
##  4   0.00963         1               1       4               1
##  5   0.0108          1               1       5               1
##  6   0.00691         1               1       6               1
##  7   0.00653         1               1       7               1
##  8   0.00827         1               1       8               1
##  9   0.0104          1               1       9               1
## 10   0.00748         1               1      10               1
## # ℹ 62 more rows
## 
## $fishery
## # A tibble: 995 × 5
##     overlap_j species_j species_group_j month_j fishery_group_j
##         <dbl>     <int>           <int>   <int>           <int>
##  1 0.000975           1               1       1               1
##  2 0.000378           1               1       1               1
##  3 0.000891           1               1       1               1
##  4 0.000905           1               1       1               1
##  5 0.000111           1               1       1               1
##  6 0.000792           1               1       1               1
##  7 0.000567           1               1       1               1
##  8 0.000712           1               1       1               1
##  9 0.00000396         1               1       1               1
## 10 0.000947           1               1       1               1
## # ℹ 985 more rows
…
